…
<img src="fig/5_visualizing-ggplot-rendered-unnamed-chunk-14-1.png" width="600" height="600" style="display: block; margin: auto;" />
We create a new dataframe that counts the number observations per year and iconic_taxon_name. Use `mutate()` and `year()` to add a `year` column. We want count by both `year` and `iconic_taxon_name`. We want the column to be called `obs_count`.


```r
inat_year_iconic_count <- inat %>% 
  mutate(year = year(observed_on))  %>%
  count(year, iconic_taxon_name, name='obs_count') 

inat_year_iconic_count
```

```output
# A tibble: 107 × 3
    year iconic_taxon_name obs_count
   <dbl> <chr>                 <int>
 1  2016 Actinopterygii            1
 2  2016 Amphibia                 87
 3  2016 Animalia                 87
 4  2016 Arachnida                99
 5  2016 Aves                    976
 6  2016 Chromista                 9
 7  2016 Fungi                    24
 8  2016 Insecta                1325
 9  2016 Mammalia                192
10  2016 Mollusca                183
# ℹ 97 more rows
```
…
