City Nature Challenge, Los Angeles: Coding Workshop: Data visualization with ggplot2
…
R

inat_year_iconic_count <- inat %>% 
  mutate(year = year(observed_on))  %>%
  count(year, iconic_taxon_name, name='obs_count') 

inat_year_iconic_count

OUTPUT

# A tibble: 107 × 3
    year iconic_taxon_name obs_count
   <dbl> <chr>                 <int>
 1  2016 Actinopterygii            1
 2  2016 Amphibia                 87
 3  2016 Animalia                 87
 4  2016 Arachnida                99
 5  2016 Aves                    976
 6  2016 Chromista                 9
 7  2016 Fungi                    24
 8  2016 Insecta                1325
 9  2016 Mammalia                192
10  2016 Mollusca                183
# ℹ 97 more rows
…
