City Nature Challenge, Los Angeles: Coding Workshop: All in One View
…
select() picks certain columns of a data.frame. To use
the select() function, the first argument is the name of
the data.frame, and the rest of the arguments are unquoted
names of the columns you want.

iNaturalist has 39 columns. We want four columns. The columns are
arranged in the order we specified inside select().

R

select(inat_raw, user_login, common_name, scientific_name, observed_on)

OUTPUT

# A tibble: 171,155 × 4
   user_login    common_name                         scientific_name observed_on
   <chr>         <chr>                               <chr>           <date>     
 1 msmorales     Garden Snail                        Cornu aspersum  2016-04-14 
 2 smartrf       Bot Flies, Blow Flies, and Allies   Oestroidea      2016-04-14 
 3 stonebird     Allen's Hummingbird                 Selasphorus sa… 2016-04-14 
 4 cdegroof      California Orange-winged Grasshopp… Arphia ramona   2016-04-14 
 5 cdegroof      Western Side-blotched Lizard        Uta stansburia… 2016-04-14 
 6 cdegroof      Western Fence Lizard                Sceloporus occ… 2016-04-14 
 7 ttempel       <NA>                                Coelocnemis     2016-04-14 
 8 bradrumble    House Sparrow                       Passer domesti… 2016-04-15 
 9 deedeeflower5 Amur Carp                           Cyprinus rubro… 2016-04-14 
10 deedeeflower5 Red-eared Slider                    Trachemys scri… 2016-04-14 
# ℹ 171,145 more rows

filter()

The filter() function is used to select rows that meet
certain criteria. To get all the rows where the value of
common_name is equal to Western Fence Lizard,
we would run the following:

R

filter(inat_raw, common_name == 'Western Fence Lizard')

OUTPUT

# A tibble: 2,970 × 39
        id observed_on_string     observed_on time_observed_at time_zone user_id
     <dbl> <chr>                  <date>      <chr>            <chr>       <dbl>
 1 2934994 2016-04-14 12:19:09    2016-04-14  2016-04-14 19:1… Pacific …   80445
 2 2935263 2016-04-14             2016-04-14  <NA>             Pacific …  216108
 3 2935420 2016-04-14             2016-04-14  <NA>             Pacific …  216108
 4 2935748 2016-04-14 14:01:29    2016-04-14  2016-04-14 21:0… Pacific …   80445
 5 2935965 Thu Apr 14 2016 12:44… 2016-04-14  2016-04-14 19:4… Pacific …  171443
 6 2938607 Thu Apr 14 2016 16:33… 2016-04-14  2016-04-14 23:3… Pacific …  146517
 7 2940103 2016-04-15 9:31:39 AM… 2016-04-15  2016-04-15 16:3… Pacific …   80984
 8 2940838 Fri Apr 15 2016 10:11… 2016-04-15  2016-04-15 17:1… Pacific …  201119
 9 2940848 Fri Apr 15 2016 10:17… 2016-04-15  2016-04-15 17:1… Pacific …  201119
10 2940855 Fri Apr 15 2016 10:42… 2016-04-15  2016-04-15 17:4… Pacific …  201119
# ℹ 2,960 more rows
# ℹ 33 more variables: user_login <chr>, user_name <chr>, created_at <chr>,
#   updated_at <chr>, quality_grade <chr>, license <chr>, url <chr>,
#   image_url <chr>, sound_url <chr>, tag_list <chr>, description <chr>,
#   num_identification_agreements <dbl>,
#   num_identification_disagreements <dbl>, captive_cultivated <lgl>,
#   oauth_application_id <dbl>, place_guess <chr>, latitude <dbl>, …
…
Get user_login, common_name, scientific_name, observed_on for all
observations where common_name is ‘Western Fence Lizard’. Use filter to
select rows, then use select to select columns.

R

inat_raw %>% 
  filter(common_name == 'Western Fence Lizard') %>% 
  select(user_login, common_name, scientific_name, observed_on) 

OUTPUT

# A tibble: 2,970 × 4
   user_login    common_name          scientific_name         observed_on
   <chr>         <chr>                <chr>                   <date>     
 1 cdegroof      Western Fence Lizard Sceloporus occidentalis 2016-04-14 
 2 deedeeflower5 Western Fence Lizard Sceloporus occidentalis 2016-04-14 
 3 deedeeflower5 Western Fence Lizard Sceloporus occidentalis 2016-04-14 
 4 cdegroof      Western Fence Lizard Sceloporus occidentalis 2016-04-14 
 5 lchroman      Western Fence Lizard Sceloporus occidentalis 2016-04-14 
 6 maiz          Western Fence Lizard Sceloporus occidentalis 2016-04-14 
 7 kimssight     Western Fence Lizard Sceloporus occidentalis 2016-04-15 
 8 sarahwenner   Western Fence Lizard Sceloporus occidentalis 2016-04-15 
 9 sarahwenner   Western Fence Lizard Sceloporus occidentalis 2016-04-15 
10 sarahwenner   Western Fence Lizard Sceloporus occidentalis 2016-04-15 
# ℹ 2,960 more rows
…
When researchers use iNaturalist data, the normally use research
grade observations. Here we will get all observations that research
grade and common_name is Western Fence Lizard. use &
for and.

R

inat_raw %>% 
  filter( common_name == 'Western Fence Lizard' 
         & quality_grade == 'research')  %>% 
  select(user_login, common_name, scientific_name, observed_on)

OUTPUT

# A tibble: 2,942 × 4
   user_login    common_name          scientific_name         observed_on
   <chr>         <chr>                <chr>                   <date>     
 1 cdegroof      Western Fence Lizard Sceloporus occidentalis 2016-04-14 
 2 deedeeflower5 Western Fence Lizard Sceloporus occidentalis 2016-04-14 
 3 deedeeflower5 Western Fence Lizard Sceloporus occidentalis 2016-04-14 
 4 cdegroof      Western Fence Lizard Sceloporus occidentalis 2016-04-14 
 5 lchroman      Western Fence Lizard Sceloporus occidentalis 2016-04-14 
 6 maiz          Western Fence Lizard Sceloporus occidentalis 2016-04-14 
 7 kimssight     Western Fence Lizard Sceloporus occidentalis 2016-04-15 
 8 sarahwenner   Western Fence Lizard Sceloporus occidentalis 2016-04-15 
 9 sarahwenner   Western Fence Lizard Sceloporus occidentalis 2016-04-15 
10 sarahwenner   Western Fence Lizard Sceloporus occidentalis 2016-04-15 
# ℹ 2,932 more rows

Here we will get observations where user_login is
‘natureinla’ and common_name is ‘Western Fence Lizard’.

R

inat_raw %>% 
  filter(user_login == 'natureinla' & common_name == 'Western Fence Lizard') %>% 
  select(user_login, common_name, scientific_name, observed_on) 

OUTPUT

# A tibble: 79 × 4
   user_login common_name          scientific_name         observed_on
   <chr>      <chr>                <chr>                   <date>     
 1 natureinla Western Fence Lizard Sceloporus occidentalis 2016-04-16 
 2 natureinla Western Fence Lizard Sceloporus occidentalis 2016-04-16 
 3 natureinla Western Fence Lizard Sceloporus occidentalis 2016-04-17 
 4 natureinla Western Fence Lizard Sceloporus occidentalis 2016-04-16 
 5 natureinla Western Fence Lizard Sceloporus occidentalis 2016-04-17 
 6 natureinla Western Fence Lizard Sceloporus occidentalis 2016-04-17 
 7 natureinla Western Fence Lizard Sceloporus occidentalis 2016-04-19 
 8 natureinla Western Fence Lizard Sceloporus occidentalis 2016-04-16 
 9 natureinla Western Fence Lizard Sceloporus occidentalis 2016-04-18 
10 natureinla Western Fence Lizard Sceloporus occidentalis 2016-04-16 
# ℹ 69 more rows

Here we will get observations where common_name is
‘Western Fence Lizard’ or ‘Western Honey Bee’. use | for
or.

R

inat_raw %>% 
  filter(common_name == 'Western Honey Bee' | common_name == 'Western Fence Lizard')  %>% 
  select(user_login, observed_on, common_name)

OUTPUT

# A tibble: 4,788 × 3
   user_login    observed_on common_name         
   <chr>         <date>      <chr>               
 1 cdegroof      2016-04-14  Western Fence Lizard
 2 deedeeflower5 2016-04-14  Western Fence Lizard
 3 deedeeflower5 2016-04-14  Western Fence Lizard
 4 cdegroof      2016-04-14  Western Fence Lizard
 5 lchroman      2016-04-14  Western Fence Lizard
 6 smartrf       2016-04-14  Western Honey Bee   
 7 maiz          2016-04-14  Western Fence Lizard
 8 smartrf       2016-04-15  Western Honey Bee   
 9 kimssight     2016-04-15  Western Fence Lizard
10 catherineh    2016-04-15  Western Honey Bee   
# ℹ 4,778 more rows
…
We are writing instructions for the computer. If there is typos,
mispelling, pass in wrong arguments into functions, etc, code will not
work and we will see errors. R will display the errors in red.

typo for %>

R

inat %>%
  select(user_login, observed_on, common_name) %>% 
  filter(user_login == 'natureinla')

OUTPUT

# A tibble: 1,528 × 3
   user_login observed_on common_name           
   <chr>      <date>      <chr>                 
 1 natureinla 2016-04-14  Red-eared Slider      
 2 natureinla 2016-04-14  Monarch               
 3 natureinla 2016-04-14  San Diego Gopher Snake
 4 natureinla 2016-04-14  California Towhee     
 5 natureinla 2016-04-14  Cooper's Hawk         
 6 natureinla 2016-04-14  Monarch               
 7 natureinla 2016-04-14  Allen's Hummingbird   
 8 natureinla 2016-04-15  Northern Mockingbird  
 9 natureinla 2016-04-15  House Sparrow         
10 natureinla 2016-04-15  Indian Peafowl        
# ℹ 1,518 more rows

Misspelled user_logi

R

inat %>%
  select(user_login, observed_on, common_name) %>% 
  filter(user_login == 'natureinla')

OUTPUT

# A tibble: 1,528 × 3
   user_login observed_on common_name           
   <chr>      <date>      <chr>                 
 1 natureinla 2016-04-14  Red-eared Slider      
 2 natureinla 2016-04-14  Monarch               
 3 natureinla 2016-04-14  San Diego Gopher Snake
 4 natureinla 2016-04-14  California Towhee     
 5 natureinla 2016-04-14  Cooper's Hawk         
 6 natureinla 2016-04-14  Monarch               
 7 natureinla 2016-04-14  Allen's Hummingbird   
 8 natureinla 2016-04-15  Northern Mockingbird  
 9 natureinla 2016-04-15  House Sparrow         
10 natureinla 2016-04-15  Indian Peafowl        
# ℹ 1,518 more rows

typo for =

R

inat %>%
  select(user_login, observed_on, common_name) %>% 
  filter(user_login == 'natureinla')

OUTPUT

# A tibble: 1,528 × 3
   user_login observed_on common_name           
   <chr>      <date>      <chr>                 
 1 natureinla 2016-04-14  Red-eared Slider      
 2 natureinla 2016-04-14  Monarch               
 3 natureinla 2016-04-14  San Diego Gopher Snake
 4 natureinla 2016-04-14  California Towhee     
 5 natureinla 2016-04-14  Cooper's Hawk         
 6 natureinla 2016-04-14  Monarch               
 7 natureinla 2016-04-14  Allen's Hummingbird   
 8 natureinla 2016-04-15  Northern Mockingbird  
 9 natureinla 2016-04-15  House Sparrow         
10 natureinla 2016-04-15  Indian Peafowl        
# ℹ 1,518 more rows

extra )

R

inat %>%
  select(user_login, observed_on, common_name) %>% 
  filter (user_login == 'natureinla')

OUTPUT

# A tibble: 1,528 × 3
   user_login observed_on common_name           
   <chr>      <date>      <chr>                 
 1 natureinla 2016-04-14  Red-eared Slider      
 2 natureinla 2016-04-14  Monarch               
 3 natureinla 2016-04-14  San Diego Gopher Snake
 4 natureinla 2016-04-14  California Towhee     
 5 natureinla 2016-04-14  Cooper's Hawk         
 6 natureinla 2016-04-14  Monarch               
 7 natureinla 2016-04-14  Allen's Hummingbird   
 8 natureinla 2016-04-15  Northern Mockingbird  
 9 natureinla 2016-04-15  House Sparrow         
10 natureinla 2016-04-15  Indian Peafowl        
# ℹ 1,518 more rows
…
temp <- inat %>% 
  mutate(year = year(observed_on))

Get observations for 2020.

R

inat %>% 
  mutate(year = year(observed_on)) %>%
  filter(year == 2020)

OUTPUT

# A tibble: 10,659 × 40
         id observed_on_string    observed_on time_observed_at time_zone user_id
      <dbl> <chr>                 <date>      <chr>            <chr>       <dbl>
 1 43036534 Fri Apr 24 2020 00:0… 2020-04-24  2020-04-24 07:0… Pacific …  146517
 2 43036989 Fri Apr 24 2020 00:0… 2020-04-24  2020-04-24 07:0… Pacific …   74669
 3 43037631 Fri Apr 24 2020 00:1… 2020-04-24  2020-04-24 07:1… Pacific …  403949
 4 43037703 Fri Apr 24 2020 00:1… 2020-04-24  2020-04-24 07:1… Pacific …  403949
 5 43037736 Fri Apr 24 2020 00:0… 2020-04-24  2020-04-24 07:0… Pacific …  403949
 6 43037745 Fri Apr 24 2020 00:1… 2020-04-24  2020-04-24 07:1… Pacific … 2556338
 7 43037824 2020-04-24 12:05:06 … 2020-04-24  2020-04-24 07:0… Pacific … 1628946
 8 43037956 Fri Apr 24 2020 00:1… 2020-04-24  2020-04-24 07:1… Pacific …   74669
 9 43037961 Fri Apr 24 2020 00:2… 2020-04-24  2020-04-24 07:2… Pacific … 2556338
10 43038195 Fri Apr 24 2020 00:2… 2020-04-24  2020-04-24 07:2… Pacific … 2556338
# ℹ 10,649 more rows
# ℹ 34 more variables: user_login <chr>, user_name <chr>, created_at <chr>,
#   updated_at <chr>, quality_grade <chr>, license <chr>, url <chr>,
#   image_url <chr>, sound_url <chr>, tag_list <chr>, description <chr>,
#   num_identification_agreements <dbl>,
#   num_identification_disagreements <dbl>, captive_cultivated <lgl>,
#   oauth_application_id <dbl>, place_guess <chr>, latitude <dbl>, …
…
Let’s count the number of observations for each species. We will pass
in both ‘common_name’ and ‘scientific_name’ because some species don’t
have a common_name.

R

inat %>% 
  count(common_name, scientific_name, name='obs_count')   

OUTPUT

# A tibble: 3,675 × 3
   common_name                 scientific_name         obs_count
   <chr>                       <chr>                       <int>
 1 Abert's Thread-waisted Wasp Ammophila aberti                1
 2 Accipiters                  Accipiter                       2
 3 Acmon Blue                  Icaricia acmon                 35
 4 Acorn Woodpecker            Melanerpes formicivorus       256
 5 Acton's Brittlebush         Encelia actoni                 11
 6 Acute Bladder Snail         Physella acuta                  8
 7 Adams Mussel                Brachidontes adamsianus         4
 8 African Asparagus           Asparagus aethiopicus          22
 9 African Clawed Frog         Xenopus laevis                  1
10 African Cluster Bug         Agonoscelis puberula           13
# ℹ 3,665 more rows

It’s often useful to take a look at the results in some order, like
the lowest count to highest. We can use the arrange()
function for that. By default, arrange will return values from lowest to
highest.

R

inat %>% 
  count(common_name, scientific_name, name='obs_count')   %>%
  arrange(obs_count)

OUTPUT

# A tibble: 3,675 × 3
   common_name                        scientific_name               obs_count
   <chr>                              <chr>                             <int>
 1 Abert's Thread-waisted Wasp        Ammophila aberti                      1
 2 African Clawed Frog                Xenopus laevis                        1
 3 African boxthorn                   Lycium ferocissimum                   1
 4 Almond                             Prunus amygdalus                      1
 5 Alpine Brown Sunken Disk Lichen    Bellemerea alpina                     1
 6 American Black-crowned Night Heron Nycticorax nycticorax hoactli         1
 7 American Dewdrop Spider            Argyrodes elevatus                    1
 8 American Dipper                    Cinclus mexicanus                     1
 9 American Softshells                Apalone                               1
10 American Sunflower Moth            Homoeosoma electella                  1
# ℹ 3,665 more rows

If we want to reverse the order, we can wrap the column name in
desc():

R

inat %>% 
  count(common_name, scientific_name, name='obs_count') %>%
  arrange(desc(obs_count)) 

OUTPUT

# A tibble: 3,675 × 3
   common_name            scientific_name         obs_count
   <chr>                  <chr>                       <int>
 1 Western Fence Lizard   Sceloporus occidentalis      2936
 2 Western Honey Bee      Apis mellifera               1803
 3 Fox Squirrel           Sciurus niger                1285
 4 House Finch            Haemorhous mexicanus         1067
 5 Mourning Dove          Zenaida macroura             1034
 6 Mallard                Anas platyrhynchos            810
 7 House Sparrow          Passer domesticus             800
 8 Convergent Lady Beetle Hippodamia convergens         788
 9 California Towhee      Melozone crissalis            747
10 Northern Mockingbird   Mimus polyglottos             719
# ℹ 3,665 more rows
…
R

inat_year_iconic_count <- inat %>% 
  mutate(year = year(observed_on))  %>%
  count(year, iconic_taxon_name, name='obs_count') 

inat_year_iconic_count

OUTPUT

# A tibble: 107 × 3
    year iconic_taxon_name obs_count
   <dbl> <chr>                 <int>
 1  2016 Actinopterygii            1
 2  2016 Amphibia                 87
 3  2016 Animalia                 87
 4  2016 Arachnida                99
 5  2016 Aves                    976
 6  2016 Chromista                 9
 7  2016 Fungi                    24
 8  2016 Insecta                1325
 9  2016 Mammalia                192
10  2016 Mollusca                183
# ℹ 97 more rows
…
